"Category ID";"Name *";"Parent Cateogry";"url rewriter *";"Image URL"
21;Coches;;coches;"https://imperialracing.es/imperialracing/images/8,5 pro mas motor.jpg"
22;Escapes;;escapes;https://imperialracing.es/imperialracing/images/9901.bmp
23;"Motores Explosion";;motores-explosion;https://imperialracing.es/imperialracing/images/novaplus2155tcr.jpg
24;Herramientas;;herramientas;"https://imperialracing.es/imperialracing/images/llaves allen.jpg"
27;Ruedas;;ruedas;"https://imperialracing.es/imperialracing/images/RUEDS ASMAN RO.jpg"
31;Emisoras;;emisoras;https://imperialracing.es/imperialracing/images/fhzfgh.jpg
32;Combustibles;;combustibles;https://imperialracing.es/imperialracing/images/xtrem.jpg
35;Accesorios;;accesorios;https://imperialracing.es/imperialracing/images/animation_index05-400.gif
39;"Siliconas Y Grasas";;siliconas-y-grasas;https://imperialracing.es/imperialracing/images/K6310-250S.jpg
51;Embragues;;embragues;https://imperialracing.es/imperialracing/images/OT-FR52.jpg
57;"Carrocerias Y Alerones";;carrocerias-y-alerones;https://imperialracing.es/imperialracing/images/071220NuevasCarrocerias.jpg
58;"Cables Y Conectores";;cables-y-conectores;https://imperialracing.es/imperialracing/images/ansmann35.jpg
59;Rodamientos;;rodamientos;https://imperialracing.es/imperialracing/images/28839.jpg
60;Servos;;servos;https://imperialracing.es/imperialracing/images/SI0050.jpg
65;Filtros;;filtros;https://imperialracing.es/imperialracing/images/b0101_000.jpg
70;Cargadores/adaptadores;;cargadores-adaptadores;"https://imperialracing.es/imperialracing/images/CARGADOR DIGITAL MULTI.jpg"
71;Baterias;;baterias;https://imperialracing.es/imperialracing/images/ansmann33.jpg
77;Tornilleria;;tornilleria;https://imperialracing.es/imperialracing/images/toran203000104.jpg
84;"Repuestos Coches";;repuestos-coches;https://imperialracing.es/imperialracing/images/hyper7tq28-1.jpg
97;"Cajas De Arranque";;cajas-de-arranque;https://imperialracing.es/imperialracing/images/H6515S.jpg
107;Pinturas;;pinturas;https://imperialracing.es/imperialracing/images/runner_sprays.jpg
166;"Motores Electricos/accesorios";;motores-electricos-accesorios;https://imperialracing.es/imperialracing/images/aquitiendasno.jpg
174;Ropa/merchandising;;ropa-merchandising;https://imperialracing.es/imperialracing/images/nov603p__64768.jpg
179;Maletas/bolsas;;maletas-bolsas;https://imperialracing.es/imperialracing/images/FAST689.jpg
216;"Venta/alquiler Medidor Radiacion";;venta-alquiler-medidor-radiacion;https://imperialracing.es/imperialracing/images/
132;"1/8 Tt Gas";"1/8 Tt Gas";1-8-tt-gas;https://imperialracing.es/imperialracing/images/image005.jpg
133;"1/10 Tt Electrico";"1/10 Tt Electrico";1-10-tt-electrico;https://imperialracing.es/imperialracing/images/LURTGH5F.png
134;"1/8 Tt Truggy";"1/8 Tt Truggy";1-8-tt-truggy;https://imperialracing.es/imperialracing/images/z.t+`+KKJKLDFGHRT,..jpg
148;"1/8 Tt Electrico";"1/8 Tt Electrico";1-8-tt-electrico;https://imperialracing.es/imperialracing/images/tdr102038.jpg
180;"1/10 Touring";"1/10 Touring";1-10-touring;https://imperialracing.es/imperialracing/images/502088.jpg
87;"Accesorios Escape";"Accesorios Escape";accesorios-escape;https://imperialracing.es/imperialracing/images/ofn95700.jpg
88;Escapes;Escapes;escapes;https://imperialracing.es/imperialracing/images/dynp5002.jpg
85;Repuestos;Repuestos;repuestos;https://imperialracing.es/imperialracing/images/nov08559.jpg
86;"Motores 1/8 Tt";"Motores 1/8 Tt";motores-1-8-tt;https://imperialracing.es/imperialracing/images/images0G71GJUC.jpg
124;"Motores 1/10 Touring";"Motores 1/10 Touring";motores-1-10-touring;https://imperialracing.es/imperialracing/images/n12ll3-groot.jpg
125;"Motores 1/8 Rally Game/gt";"Motores 1/8 Rally Game/gt";motores-1-8-rally-game-gt;https://imperialracing.es/imperialracing/images/N21R7.jpg
126;Accesorios;Accesorios;accesorios;https://imperialracing.es/imperialracing/images/nov36000.jpg
127;Bujias;Bujias;bujias;https://imperialracing.es/imperialracing/images/bujia.jpg
196;Destornilladores;Destornilladores;destornilladores;https://imperialracing.es/imperialracing/images/hud190100.jpg
198;"Puntas Destornillador";"Puntas Destornillador";puntas-destornillador;https://imperialracing.es/imperialracing/images/images61HARLA3.jpg
199;"Herramientas Setup";"Herramientas Setup";herramientas-setup;https://imperialracing.es/imperialracing/images/HGJYHJTYGHJYTJJ.png
200;"Herramientas Rc";"Herramientas Rc";herramientas-rc;https://imperialracing.es/imperialracing/images/hud190210.jpg
201;"Llaves Rc";"Llaves Rc";llaves-rc;https://imperialracing.es/imperialracing/images/hud107581.jpg
202;"Set Herramientas";"Set Herramientas";set-herramientas;https://imperialracing.es/imperialracing/images/hud190005_1.jpg
121;"Ruedas 1/8 Tt";"Ruedas 1/8 Tt";ruedas-1-8-tt;https://imperialracing.es/imperialracing/images/aka14001vry.jpg
122;"Ruedas 1/8 Truggy";"Ruedas 1/8 Truggy";ruedas-1-8-truggy;https://imperialracing.es/imperialracing/images/truggyh.jpg
123;"Ruedas 1/8 Rally Game";"Ruedas 1/8 Rally Game";ruedas-1-8-rally-game;https://imperialracing.es/imperialracing/images/rayy.jpg
129;"Adhesivos Llantas";"Adhesivos Llantas";adhesivos-llantas;https://imperialracing.es/imperialracing/images/LLANFKJ
130;"Llantas 1/8tt";"Llantas 1/8tt";llantas-1-8tt;https://imperialracing.es/imperialracing/images/jci3302y.jpg
131;"Montaje Y Pegamentos";"Montaje Y Pegamentos";montaje-y-pegamentos;https://imperialracing.es/imperialracing/images/ZAS.gif
175;"Ruedas 1/10";"Ruedas 1/10";ruedas-1-10;https://imperialracing.es/imperialracing/images/pro8211-02.jpg
181;"Ruedas 1/10 Short Course";"Ruedas 1/10 Short Course";ruedas-1-10-short-course;https://imperialracing.es/imperialracing/images/th.jpg
212;"Ruedas 1/5 Pista";"Ruedas 1/5 Pista";ruedas-1-5-pista;https://imperialracing.es/imperialracing/images/f8a458e18503c86603dc02339a944feb_M.jpg
213;"Ruedas 1/5 Tt Baja";"Ruedas 1/5 Tt Baja";ruedas-1-5-tt-baja;https://imperialracing.es/imperialracing/images/thR0BRS5RM.jpg
89;"Accesorios/ Receptores";"Accesorios/ Receptores";accesorios-receptores;https://imperialracing.es/imperialracing/images/24.jpg
90;Emisoras;Emisoras;emisoras;https://imperialracing.es/imperialracing/images/FUTK2020_1.jpg
119;"Adhesivos Emisoras";"Adhesivos Emisoras";adhesivos-emisoras;https://imperialracing.es/imperialracing/images/011.jpg
99;"Siliconas Siim";"Siliconas Siim";siliconas-siim;https://imperialracing.es/imperialracing/images/SIIM(1).jpg
100;"Silicona Mugen";"Silicona Mugen";silicona-mugen;https://imperialracing.es/imperialracing/images/logo_mugen_142x64.gif
101;"Siliconas Hiro Seiko";"Siliconas Hiro Seiko";siliconas-hiro-seiko;https://imperialracing.es/imperialracing/images/lknio98.jpg
102;"Siliconas Xray";"Siliconas Xray";siliconas-xray;https://imperialracing.es/imperialracing/images/xrayguapo.gif
103;"Silicona K Factory";"Silicona K Factory";silicona-k-factory;https://imperialracing.es/imperialracing/images/logokfactory.jpg
143;"Grasas Especiales";"Grasas Especiales";grasas-especiales;https://imperialracing.es/imperialracing/images/mugb0330.jpg
178;"Silicona Ultimate";"Silicona Ultimate";silicona-ultimate;"https://imperialracing.es/imperialracing/images/untiLOGO ULTRACIJDF.png"
214;"Outlet Siliconas Varias Marcas";"Outlet Siliconas Varias Marcas";outlet-siliconas-varias-marcas;https://imperialracing.es/imperialracing/images/autletsilicond.png
215;"Silicona Plus Speed";"Silicona Plus Speed";silicona-plus-speed;https://imperialracing.es/imperialracing/images/IMG_20160310_1422051-3.jpg
136;Embragues;Embragues;embragues;"https://imperialracing.es/imperialracing/images/ZCAlpha_E72-BU02101_thumb (1).jpg"
137;Campanas;Campanas;campanas;https://imperialracing.es/imperialracing/images/E2702M.jpg
138;"Recambio De Embrague";"Recambio De Embrague";recambio-de-embrague;https://imperialracing.es/imperialracing/images/HT495021SG.bmp
193;"Rodamientos De Campana";"Rodamientos De Campana";rodamientos-de-campana;https://imperialracing.es/imperialracing/images/revolution.jpg
104;Alerones;Alerones;alerones;https://imperialracing.es/imperialracing/images/lihlli.jpg
106;"Carrocerias 1/8 Tt";"Carrocerias 1/8 Tt";carrocerias-1-8-tt;https://imperialracing.es/imperialracing/images/IFRLR.jpg
118;Adhesivos;Adhesivos;adhesivos;https://imperialracing.es/imperialracing/images/muge0043.jpg
139;"Carrocerias 1/8 Rally Game";"Carrocerias 1/8 Rally Game";carrocerias-1-8-rally-game;https://imperialracing.es/imperialracing/images/LHI
144;"Carrocerias 1/10 Turing";"Carrocerias 1/10 Turing";carrocerias-1-10-turing;https://imperialracing.es/imperialracing/images/84-817-large.jpg
208;"Carrocerias 1/8tt Plus Speed";"Carrocerias 1/8tt Plus Speed";carrocerias-1-8tt-plus-speed;https://imperialracing.es/imperialracing/images/bdyfrc-xb8.jpg
210;"Alerones Lexan Bittydesing";"Alerones Lexan Bittydesing";alerones-lexan-bittydesing;https://imperialracing.es/imperialracing/images/show_image_in_imgtag13423.jpg
152;"Todas Las Medidas";"Todas Las Medidas";todas-las-medidas;https://imperialracing.es/imperialracing/images/LOSA6953.jpg
153;"Set Completos";"Set Completos";set-completos;https://imperialracing.es/imperialracing/images/28839.jpg
154;"Rodamientos Motor";"Rodamientos Motor";rodamientos-motor;https://imperialracing.es/imperialracing/images/nvr16000.jpg
95;"Brazos Y PiÑonerias";"Brazos Y PiÑonerias";brazos-y-pinonerias;https://imperialracing.es/imperialracing/images/hrc55709.jpg
96;Servos;Servos;servos;https://imperialracing.es/imperialracing/images/futababls351.jpg
209;"Arandelas Servo";"Arandelas Servo";arandelas-servo;https://imperialracing.es/imperialracing/images/Arandela_servoGYHU.jpg
217;Cargadores;Cargadores;cargadores;https://imperialracing.es/imperialracing/images/P1deswd.jpg
218;Adaptadores;Adaptadores;adaptadores;https://imperialracing.es/imperialracing/images/adaptador-balanceo-jst-xh-720x600.jpg
204;"Baterias Life";"Baterias Life";baterias-life;https://imperialracing.es/imperialracing/images/ORI12255RR.jpg
205;"Baterias Lipo";"Baterias Lipo";baterias-lipo;https://imperialracing.es/imperialracing/images/Ultimate_14_8v_5_54de2d1e9dcde.jpg
206;"Baterias Niquel Metal Hidruro";"Baterias Niquel Metal Hidruro";baterias-niquel-metal-hidruro;https://imperialracing.es/imperialracing/images/BART566Y.jpg
207;"Baterias Plomo";"Baterias Plomo";baterias-plomo;https://imperialracing.es/imperialracing/images/images4VUYGRWS.jpg
156;"Arandelas Y Tuercas Colores";"Arandelas Y Tuercas Colores";arandelas-y-tuercas-colores;https://imperialracing.es/imperialracing/images/TWorksWashers-400x256.jpg
161;Tornilleria;Tornilleria;tornilleria;https://imperialracing.es/imperialracing/images/704006_piw.jpg
164;"Tornilleria Emisoras Colores";"Tornilleria Emisoras Colores";tornilleria-emisoras-colores;https://imperialracing.es/imperialracing/images/1204765129_New-1.jpg
165;"Kit Tornilleria Coches";"Kit Tornilleria Coches";kit-tornilleria-coches;https://imperialracing.es/imperialracing/images/muge0831.jpg
28;"Mugen Mbx5r";"Mugen Mbx5r";mugen-mbx5r;https://imperialracing.es/imperialracing/images/logo_mugen_142x64.gif
53;Nanda;Nanda;nanda;https://imperialracing.es/imperialracing/images/nandaracing.jpg
54;"Hiper 7";"Hiper 7";hiper-7;https://imperialracing.es/imperialracing/images/hyper7tq21.jpg
55;"Hiper 8, 8.5";"Hiper 8, 8.5";hiper-8-8-5;https://imperialracing.es/imperialracing/images/hhds.gif
64;Ocm;Ocm;ocm;https://imperialracing.es/imperialracing/images/ocmracing.jpg
91;"Repuestos Universales";"Repuestos Universales";repuestos-universales;https://imperialracing.es/imperialracing/images/KJH
92;"Mugen Mbx6/eu/eco";"Mugen Mbx6/eu/eco";mugen-mbx6-eu-eco;https://imperialracing.es/imperialracing/images/mugen_logo.jpg
93;"Xray Xb808 2010 New";"Xray Xb808 2010 New";xray-xb808-2010-new;https://imperialracing.es/imperialracing/images/xrayguapo.gif
94;"Hong Nor";"Hong Nor";hong-nor;https://imperialracing.es/imperialracing/images/hn.gif
128;"Mugen Mbx6 Truggy";"Mugen Mbx6 Truggy";mugen-mbx6-truggy;https://imperialracing.es/imperialracing/images/MugenMBX6TMSpec1.jpg
135;"Team Durango Dex210/dex210v2 Ele";"Team Durango Dex210/dex210v2 Ele";team-durango-dex210-dex210v2-ele;https://imperialracing.es/imperialracing/images/210press2-6.jpg
140;"Losi 8ight 2.0 Y E.u";"Losi 8ight 2.0 Y E.u";losi-8ight-2-0-y-e-u;https://imperialracing.es/imperialracing/images/ZZASDF.jpg
145;"Bergonzoni R1";"Bergonzoni R1";bergonzoni-r1;https://imperialracing.es/imperialracing/images/GHGJHGGMNM.gif
146;"Agama A8 Evo";"Agama A8 Evo";agama-a8-evo;https://imperialracing.es/imperialracing/images/logo_agama_2.jpg
147;"Team Durango Dnx408/dex408";"Team Durango Dnx408/dex408";team-durango-dnx408-dex408;https://imperialracing.es/imperialracing/images/776017210_sBBFH-S.jpg
162;"Protectores Chasis";"Protectores Chasis";protectores-chasis;https://imperialracing.es/imperialracing/images/mp9_front_big.jpg
163;"Team Durango Dex410v3/v4 Electri";"Team Durango Dex410v3/v4 Electri";team-durango-dex410v3-v4-electri;https://imperialracing.es/imperialracing/images/LURTGH5F.png
176;"Mugen Mbx7/mbx7 Eco";"Mugen Mbx7/mbx7 Eco";mugen-mbx7-mbx7-eco;https://imperialracing.es/imperialracing/images/mugen-mbx7.jpg
194;"S-workz Sbk01/s350 Evo";"S-workz Sbk01/s350 Evo";s-workz-sbk01-s350-evo;https://imperialracing.es/imperialracing/images/untitledRTYURT5.png
195;"Mugen Mbx7/mbx7r/mbx8 Truggy";"Mugen Mbx7/mbx7r/mbx8 Truggy";mugen-mbx7-mbx7r-mbx8-truggy;https://imperialracing.es/imperialracing/images/imagesCE7JLWFP.jpg
203;"Mugen Mbx7r/mbx7r Eco";"Mugen Mbx7r/mbx7r Eco";mugen-mbx7r-mbx7r-eco;https://imperialracing.es/imperialracing/images/thFGHE5665.,.jpg
211;"Serpent Cobra 811";"Serpent Cobra 811";serpent-cobra-811;https://imperialracing.es/imperialracing/images/imageIKXS,G.jpg
222;"Mugen Mbx8/mbx8 Eco";"Mugen Mbx8/mbx8 Eco";mugen-mbx8-mbx8-eco;https://imperialracing.es/imperialracing/images/Mugen-Seiki-MBX8-coming-soon.jpg
184;"Rodamientos Motor";"Rodamientos Motor";rodamientos-motor;https://imperialracing.es/imperialracing/images/bocmx2513e.jpg
185;"Motores Novarossi";"Motores Novarossi";motores-novarossi;https://imperialracing.es/imperialracing/images/nvrs21p5xlt.jpg
186;"Motores Alpha";"Motores Alpha";motores-alpha;https://imperialracing.es/imperialracing/images/alp21-ryan-we.jpg
187;"Motores Rb";"Motores Rb";motores-rb;https://imperialracing.es/imperialracing/images/thTYUJTY.jpg
188;"Motores Ninja";"Motores Ninja";motores-ninja;https://imperialracing.es/imperialracing/images/thCA224EOY.jpg
189;"Motores Os";"Motores Os";motores-os;https://imperialracing.es/imperialracing/images/thCARMJE9R.jpg
190;"Motores Ultimate";"Motores Ultimate";motores-ultimate;https://imperialracing.es/imperialracing/images/thCAKX887F.jpg
191;"Motores Orion";"Motores Orion";motores-orion;https://imperialracing.es/imperialracing/images/thCAA24K9Y.jpg
192;"Motores Variados";"Motores Variados";motores-variados;https://imperialracing.es/imperialracing/images/thCAJDI9S5.jpg
219;"Motores Reds";"Motores Reds";motores-reds;https://imperialracing.es/imperialracing/images/redr7e2_1.jpg
108;"Cajas De Arranque";"Cajas De Arranque";cajas-de-arranque;https://imperialracing.es/imperialracing/images/H6515.jpg
109;"Ruedas, Motores, Correas";"Ruedas, Motores, Correas";ruedas-motores-correas;https://imperialracing.es/imperialracing/images/201000164.jpg
120;Adhesivos;Adhesivos;adhesivos;https://imperialracing.es/imperialracing/images/craftlrpbox.jpg
220;"Ruedas 1/8tt Sin Pegar";"Ruedas 1/8tt Sin Pegar";ruedas-1-8tt-sin-pegar;https://imperialracing.es/imperialracing/images/pro9021-00.jpg
221;"Ruedas 1/8tt Pegadas";"Ruedas 1/8tt Pegadas";ruedas-1-8tt-pegadas;https://imperialracing.es/imperialracing/images/aka14010sry.jpg
141;"Bujias Normales";"Bujias Normales";bujias-normales;https://imperialracing.es/imperialracing/images/Z`POIU.jpg
142;"Bujias Turbo";"Bujias Turbo";bujias-turbo;https://imperialracing.es/imperialracing/images/ZGGTGT.jpg
167;"Kit Conversion Electrico";"Kit Conversion Electrico";kit-conversion-electrico;https://imperialracing.es/imperialracing/images/LOSA0912.jpg
168;"Motores Brushless";"Motores Brushless";motores-brushless;https://imperialracing.es/imperialracing/images/imagesCAKKPQG3.jpg
169;"PiÑones 1/10";"PiÑones 1/10";pinones-1-10;https://imperialracing.es/imperialracing/images/125000810.jpg
170;"PiÑones 1/8";"PiÑones 1/8";pinones-1-8;https://imperialracing.es/imperialracing/images/E0714.jpg
171;"Baterias Lipo";"Baterias Lipo";baterias-lipo;https://imperialracing.es/imperialracing/images/imagesCAP4W2WO.jpg
172;Reguladores/disipadores/cables;Reguladores/disipadores/cables;reguladores-disipadores-cables;https://imperialracing.es/imperialracing/images/imagesCAB62V2R.jpg
173;Variadores;Variadores;variadores;https://imperialracing.es/imperialracing/images/imagesCA016JGU.jpg
177;"Motores Escobillas";"Motores Escobillas";motores-escobillas;https://imperialracing.es/imperialracing/images/125000011-1.jpg
