Category ID;Active (0/1);Name *;Parent Cateogry(0/1);Root category (0/1);Description;Meta title;Meta keywords;Meta description;URL rewritten;Image URL
216;1;VENTA/ALQUILER MEDIDOR RADIACION;0;1;;;;;;
179;1;MALETAS/BOLSAS;0;1;;;;;;https://imperialracing.es/imperialracing/images/FAST689.jpg
174;1;ROPA/MERCHANDISING;0;1;;;;;;https://imperialracing.es/imperialracing/images/nov603p__64768.jpg
166;1;MOTORES ELECTRICOS/ACCESORIOS;0;1;;;;;;https://imperialracing.es/imperialracing/images/aquitiendasno.jpg
84;1;REPUESTOS COCHES;0;1;;;;;;https://imperialracing.es/imperialracing/images/hyper7tq28-1.jpg
107;1;PINTURAS;0;1;;;;;;https://imperialracing.es/imperialracing/images/runner_sprays.jpg
97;1;CAJAS DE ARRANQUE;0;1;;;;;;https://imperialracing.es/imperialracing/images/H6515S.jpg
77;1;TORNILLERIA;0;1;;;;;;https://imperialracing.es/imperialracing/images/toran203000104.jpg
71;1;BATERIAS;0;1;;;;;;https://imperialracing.es/imperialracing/images/ansmann33.jpg
70;1;CARGADORES/ADAPTADORES;0;1;;;;;;https://imperialracing.es/imperialracing/images/CARGADOR DIGITAL MULTI.jpg
65;1;FILTROS;0;1;;;;;;https://imperialracing.es/imperialracing/images/b0101_000.jpg
60;1;SERVOS;0;1;;;;;;https://imperialracing.es/imperialracing/images/SI0050.jpg
59;1;RODAMIENTOS;0;1;;;;;;https://imperialracing.es/imperialracing/images/28839.jpg
58;1;CABLES Y CONECTORES;0;1;;;;;;https://imperialracing.es/imperialracing/images/ansmann35.jpg
57;1;CARROCERIAS Y ALERONES;0;1;;;;;;https://imperialracing.es/imperialracing/images/071220NuevasCarrocerias.jpg
51;1;EMBRAGUES;0;1;;;;;;https://imperialracing.es/imperialracing/images/OT-FR52.jpg
39;1;SILICONAS Y GRASAS;0;1;;;;;;https://imperialracing.es/imperialracing/images/K6310-250S.jpg
35;1;ACCESORIOS;0;1;;;;;;https://imperialracing.es/imperialracing/images/animation_index05-400.gif
32;1;COMBUSTIBLES;0;1;;;;;;https://imperialracing.es/imperialracing/images/xtrem.jpg
31;1;EMISORAS;0;1;;;;;;https://imperialracing.es/imperialracing/images/fhzfgh.jpg
27;1;RUEDAS;0;1;;;;;;https://imperialracing.es/imperialracing/images/RUEDS ASMAN RO.jpg
24;1;HERRAMIENTAS;0;1;;;;;;https://imperialracing.es/imperialracing/images/llaves allen.jpg
23;1;MOTORES EXPLOSION;0;1;;;;;;https://imperialracing.es/imperialracing/images/novaplus2155tcr.jpg
22;1;ESCAPES;0;1;;;;;;https://imperialracing.es/imperialracing/images/9901.bmp
21;1;COCHES;0;1;;;;;;https://imperialracing.es/imperialracing/images/8,5 pro mas motor.jpg
180;1;1/10 TOURING;21;0;;;;;;https://imperialracing.es/imperialracing/images/502088.jpg
148;1;1/8 TT ELECTRICO;21;0;;;;;;https://imperialracing.es/imperialracing/images/tdr102038.jpg
134;1;1/8 TT TRUGGY;21;0;;;;;;https://imperialracing.es/imperialracing/images/z.t+`+KKJKLDFGHRT,..jpg
133;1;1/10 TT ELECTRICO;21;0;;;;;;https://imperialracing.es/imperialracing/images/LURTGH5F.png
132;1;1/8 TT GAS;21;0;;;;;;https://imperialracing.es/imperialracing/images/image005.jpg
88;1;ESCAPES;22;0;;;;;;https://imperialracing.es/imperialracing/images/dynp5002.jpg
87;1;ACCESORIOS ESCAPE;22;0;;;;;;https://imperialracing.es/imperialracing/images/ofn95700.jpg
127;1;BUJIAS;23;0;;;;;;https://imperialracing.es/imperialracing/images/bujia.jpg
126;1;ACCESORIOS;23;0;;;;;;https://imperialracing.es/imperialracing/images/nov36000.jpg
125;1;MOTORES 1/8 RALLY GAME/GT;23;0;;;;;;https://imperialracing.es/imperialracing/images/N21R7.jpg
124;1;MOTORES 1/10 TOURING;23;0;;;;;;https://imperialracing.es/imperialracing/images/n12ll3-groot.jpg
86;1;MOTORES 1/8 TT;23;0;;;;;;https://imperialracing.es/imperialracing/images/images0G71GJUC.jpg
85;1;REPUESTOS;23;0;;;;;;https://imperialracing.es/imperialracing/images/nov08559.jpg
202;1;SET HERRAMIENTAS;24;0;;;;;;https://imperialracing.es/imperialracing/images/hud190005_1.jpg
201;1;LLAVES RC;24;0;;;;;;https://imperialracing.es/imperialracing/images/hud107581.jpg
200;1;HERRAMIENTAS RC;24;0;;;;;;https://imperialracing.es/imperialracing/images/hud190210.jpg
199;1;HERRAMIENTAS SETUP;24;0;;;;;;https://imperialracing.es/imperialracing/images/HGJYHJTYGHJYTJJ.png
198;1;PUNTAS DESTORNILLADOR;24;0;;;;;;https://imperialracing.es/imperialracing/images/images61HARLA3.jpg
196;1;DESTORNILLADORES;24;0;;;;;;https://imperialracing.es/imperialracing/images/hud190100.jpg
213;1;RUEDAS 1/5 TT BAJA;27;0;;;;;;https://imperialracing.es/imperialracing/images/thR0BRS5RM.jpg
212;1;RUEDAS 1/5 PISTA;27;0;;;;;;https://imperialracing.es/imperialracing/images/f8a458e18503c86603dc02339a944feb_M.jpg
181;1;RUEDAS 1/10 SHORT COURSE;27;0;;;;;;https://imperialracing.es/imperialracing/images/th.jpg
175;1;RUEDAS 1/10;27;0;;;;;;https://imperialracing.es/imperialracing/images/pro8211-02.jpg
131;1;MONTAJE Y PEGAMENTOS;27;0;;;;;;https://imperialracing.es/imperialracing/images/ZAS.gif
130;1;LLANTAS 1/8TT;27;0;;;;;;https://imperialracing.es/imperialracing/images/jci3302y.jpg
129;1;ADHESIVOS LLANTAS;27;0;;;;;;https://imperialracing.es/imperialracing/images/LLANFKJ
123;1;RUEDAS 1/8 RALLY GAME;27;0;;;;;;https://imperialracing.es/imperialracing/images/rayy.jpg
122;1;RUEDAS 1/8 TRUGGY;27;0;;;;;;https://imperialracing.es/imperialracing/images/truggyh.jpg
121;1;RUEDAS 1/8 TT;27;0;;;;;;https://imperialracing.es/imperialracing/images/aka14001vry.jpg
119;1;ADHESIVOS EMISORAS;31;0;;;;;;https://imperialracing.es/imperialracing/images/011.jpg
90;1;EMISORAS;31;0;;;;;;https://imperialracing.es/imperialracing/images/FUTK2020_1.jpg
89;1;ACCESORIOS/ RECEPTORES;31;0;;;;;;https://imperialracing.es/imperialracing/images/24.jpg
215;1;SILICONA PLUS SPEED;39;0;;;;;;https://imperialracing.es/imperialracing/images/IMG_20160310_1422051-3.jpg
214;1;OUTLET SILICONAS VARIAS MARCAS;39;0;;;;;;https://imperialracing.es/imperialracing/images/autletsilicond.png
178;1;SILICONA ULTIMATE;39;0;;;;;;https://imperialracing.es/imperialracing/images/untiLOGO ULTRACIJDF.png
143;1;GRASAS ESPECIALES;39;0;;;;;;https://imperialracing.es/imperialracing/images/mugb0330.jpg
103;1;SILICONA K FACTORY;39;0;;;;;;https://imperialracing.es/imperialracing/images/logokfactory.jpg
102;1;SILICONAS XRAY;39;0;;;;;;https://imperialracing.es/imperialracing/images/xrayguapo.gif
101;1;SILICONAS HIRO SEIKO;39;0;;;;;;https://imperialracing.es/imperialracing/images/lknio98.jpg
100;1;SILICONA MUGEN;39;0;;;;;;https://imperialracing.es/imperialracing/images/logo_mugen_142x64.gif
99;1;SILICONAS SIIM;39;0;;;;;;https://imperialracing.es/imperialracing/images/SIIM(1).jpg
193;1;RODAMIENTOS DE CAMPANA;51;0;;;;;;https://imperialracing.es/imperialracing/images/revolution.jpg
138;1;RECAMBIO DE EMBRAGUE;51;0;;;;;;https://imperialracing.es/imperialracing/images/HT495021SG.bmp
137;1;CAMPANAS;51;0;;;;;;https://imperialracing.es/imperialracing/images/E2702M.jpg
136;1;EMBRAGUES;51;0;;;;;;https://imperialracing.es/imperialracing/images/ZCAlpha_E72-BU02101_thumb (1).jpg
210;1;ALERONES LEXAN BITTYDESING;57;0;;;;;;https://imperialracing.es/imperialracing/images/show_image_in_imgtag13423.jpg
208;1;CARROCERIAS 1/8TT PLUS SPEED;57;0;;;;;;https://imperialracing.es/imperialracing/images/bdyfrc-xb8.jpg
144;1;CARROCERIAS 1/10 TURING;57;0;;;;;;https://imperialracing.es/imperialracing/images/84-817-large.jpg
139;1;CARROCERIAS 1/8 RALLY GAME;57;0;;;;;;https://imperialracing.es/imperialracing/images/LHI
118;1;ADHESIVOS;57;0;;;;;;https://imperialracing.es/imperialracing/images/muge0043.jpg
106;1;CARROCERIAS 1/8 TT;57;0;;;;;;https://imperialracing.es/imperialracing/images/IFRLR.jpg
104;1;ALERONES;57;0;;;;;;https://imperialracing.es/imperialracing/images/lihlli.jpg
154;1;RODAMIENTOS MOTOR;59;0;;;;;;https://imperialracing.es/imperialracing/images/nvr16000.jpg
153;1;SET COMPLETOS;59;0;;;;;;https://imperialracing.es/imperialracing/images/28839.jpg
152;1;TODAS LAS MEDIDAS;59;0;;;;;;https://imperialracing.es/imperialracing/images/LOSA6953.jpg
209;1;ARANDELAS SERVO;60;0;;;;;;https://imperialracing.es/imperialracing/images/Arandela_servoGYHU.jpg
96;1;SERVOS;60;0;;;;;;https://imperialracing.es/imperialracing/images/futababls351.jpg
95;1;BRAZOS Y PIÑONERIAS;60;0;;;;;;https://imperialracing.es/imperialracing/images/hrc55709.jpg
218;1;ADAPTADORES;70;0;;;;;;https://imperialracing.es/imperialracing/images/adaptador-balanceo-jst-xh-720x600.jpg
217;1;CARGADORES;70;0;;;;;;https://imperialracing.es/imperialracing/images/P1deswd.jpg
207;1;BATERIAS PLOMO;71;0;;;;;;https://imperialracing.es/imperialracing/images/images4VUYGRWS.jpg
206;1;BATERIAS NIQUEL METAL HIDRURO;71;0;;;;;;https://imperialracing.es/imperialracing/images/BART566Y.jpg
205;1;BATERIAS LIPO;71;0;;;;;;https://imperialracing.es/imperialracing/images/Ultimate_14_8v_5_54de2d1e9dcde.jpg
204;1;BATERIAS LIFE;71;0;;;;;;https://imperialracing.es/imperialracing/images/ORI12255RR.jpg
165;1;KIT TORNILLERIA COCHES;77;0;;;;;;https://imperialracing.es/imperialracing/images/muge0831.jpg
164;1;TORNILLERIA EMISORAS COLORES;77;0;;;;;;https://imperialracing.es/imperialracing/images/1204765129_New-1.jpg
161;1;TORNILLERIA;77;0;;;;;;https://imperialracing.es/imperialracing/images/704006_piw.jpg
156;1;ARANDELAS Y TUERCAS COLORES;77;0;;;;;;https://imperialracing.es/imperialracing/images/TWorksWashers-400x256.jpg
222;1;MUGEN MBX8/MBX8 ECO;84;0;;;;;;https://imperialracing.es/imperialracing/images/Mugen-Seiki-MBX8-coming-soon.jpg
211;1;SERPENT COBRA 811;84;0;;;;;;https://imperialracing.es/imperialracing/images/imageIKXS,G.jpg
203;1;MUGEN MBX7R/MBX7R ECO;84;0;;;;;;https://imperialracing.es/imperialracing/images/thFGHE5665.,.jpg
195;1;MUGEN MBX7/MBX7R/MBX8 TRUGGY;84;0;;;;;;https://imperialracing.es/imperialracing/images/imagesCE7JLWFP.jpg
194;1;S-WORKZ SBK01/S350 EVO;84;0;;;;;;https://imperialracing.es/imperialracing/images/untitledRTYURT5.png
176;1;MUGEN MBX7/MBX7 ECO;84;0;;;;;;https://imperialracing.es/imperialracing/images/mugen-mbx7.jpg
163;1;TEAM DURANGO DEX410V3/V4 ELECTRI;84;0;;;;;;https://imperialracing.es/imperialracing/images/LURTGH5F.png
162;1;PROTECTORES CHASIS;84;0;;;;;;https://imperialracing.es/imperialracing/images/mp9_front_big.jpg
147;1;TEAM DURANGO DNX408/DEX408;84;0;;;;;;https://imperialracing.es/imperialracing/images/776017210_sBBFH-S.jpg
146;1;AGAMA A8 EVO;84;0;;;;;;https://imperialracing.es/imperialracing/images/logo_agama_2.jpg
145;1;BERGONZONI R1;84;0;;;;;;https://imperialracing.es/imperialracing/images/GHGJHGGMNM.gif
140;1;LOSI 8IGHT 2.0 y E.U;84;0;;;;;;https://imperialracing.es/imperialracing/images/ZZASDF.jpg
135;1;TEAM DURANGO DEX210/DEX210V2 ELE;84;0;;;;;;https://imperialracing.es/imperialracing/images/210press2-6.jpg
128;1;MUGEN MBX6 TRUGGY;84;0;;;;;;https://imperialracing.es/imperialracing/images/MugenMBX6TMSpec1.jpg
94;1;HONG NOR;84;0;;;;;;https://imperialracing.es/imperialracing/images/hn.gif
93;1;XRAY XB808 2010 NEW;84;0;;;;;;https://imperialracing.es/imperialracing/images/xrayguapo.gif
92;1;MUGEN MBX6/EU/ECO;84;0;;;;;;https://imperialracing.es/imperialracing/images/mugen_logo.jpg
91;1;REPUESTOS UNIVERSALES;84;0;;;;;;https://imperialracing.es/imperialracing/images/KJH
64;1;OCM;84;0;;;;;;https://imperialracing.es/imperialracing/images/ocmracing.jpg
55;1;HIPER 8, 8.5;84;0;;;;;;https://imperialracing.es/imperialracing/images/hhds.gif
54;1;HIPER 7;84;0;;;;;;https://imperialracing.es/imperialracing/images/hyper7tq21.jpg
53;1;NANDA;84;0;;;;;;https://imperialracing.es/imperialracing/images/nandaracing.jpg
28;1;MUGEN MBX5r;84;0;;;;;;https://imperialracing.es/imperialracing/images/logo_mugen_142x64.gif
219;1;MOTORES REDS;85;0;;;;;;https://imperialracing.es/imperialracing/images/redr7e2_1.jpg
192;1;MOTORES VARIADOS;85;0;;;;;;https://imperialracing.es/imperialracing/images/thCAJDI9S5.jpg
191;1;MOTORES ORION;85;0;;;;;;https://imperialracing.es/imperialracing/images/thCAA24K9Y.jpg
190;1;MOTORES ULTIMATE;85;0;;;;;;https://imperialracing.es/imperialracing/images/thCAKX887F.jpg
189;1;MOTORES OS;85;0;;;;;;https://imperialracing.es/imperialracing/images/thCARMJE9R.jpg
188;1;MOTORES NINJA;85;0;;;;;;https://imperialracing.es/imperialracing/images/thCA224EOY.jpg
187;1;MOTORES RB;85;0;;;;;;https://imperialracing.es/imperialracing/images/thTYUJTY.jpg
186;1;MOTORES ALPHA;85;0;;;;;;https://imperialracing.es/imperialracing/images/alp21-ryan-we.jpg
185;1;MOTORES NOVAROSSI;85;0;;;;;;https://imperialracing.es/imperialracing/images/nvrs21p5xlt.jpg
184;1;RODAMIENTOS MOTOR;85;0;;;;;;https://imperialracing.es/imperialracing/images/bocmx2513e.jpg
120;1;ADHESIVOS;97;0;;;;;;https://imperialracing.es/imperialracing/images/craftlrpbox.jpg
109;1;RUEDAS, MOTORES, CORREAS;97;0;;;;;;https://imperialracing.es/imperialracing/images/201000164.jpg
108;1;CAJAS DE ARRANQUE;97;0;;;;;;https://imperialracing.es/imperialracing/images/H6515.jpg
221;1;RUEDAS 1/8TT PEGADAS;121;0;;;;;;https://imperialracing.es/imperialracing/images/aka14010sry.jpg
220;1;RUEDAS 1/8TT SIN PEGAR;121;0;;;;;;https://imperialracing.es/imperialracing/images/pro9021-00.jpg
142;1;BUJIAS TURBO;127;0;;;;;;https://imperialracing.es/imperialracing/images/ZGGTGT.jpg
141;1;BUJIAS NORMALES;127;0;;;;;;https://imperialracing.es/imperialracing/images/Z`POIU.jpg
177;1;MOTORES ESCOBILLAS;166;0;;;;;;https://imperialracing.es/imperialracing/images/125000011-1.jpg
173;1;VARIADORES;166;0;;;;;;https://imperialracing.es/imperialracing/images/imagesCA016JGU.jpg
172;1;REGULADORES/DISIPADORES/CABLES;166;0;;;;;;https://imperialracing.es/imperialracing/images/imagesCAB62V2R.jpg
171;1;BATERIAS LIPO;166;0;;;;;;https://imperialracing.es/imperialracing/images/imagesCAP4W2WO.jpg
170;1;PIÑONES 1/8;166;0;;;;;;https://imperialracing.es/imperialracing/images/E0714.jpg
169;1;PIÑONES 1/10;166;0;;;;;;https://imperialracing.es/imperialracing/images/125000810.jpg
168;1;MOTORES BRUSHLESS;166;0;;;;;;https://imperialracing.es/imperialracing/images/imagesCAKKPQG3.jpg
167;1;KIT CONVERSION ELECTRICO;166;0;;;;;;https://imperialracing.es/imperialracing/images/LOSA0912.jpg