addressId;alias;firstname;customerEmail;company;lastName;address
2;Mariano;Mariano;toletumrc@hotmail.com;;Alia Alia;Urb  Valdemarias 1 Duplex 15
4449;Mariano;Mariano;toletumrc@hotmail.com;;Alia Alia;Urb  Valdemarias  1 Duplex 15
4;Raul;Raul;rvg_sky@hotmail.com;;Vazquez;C  Eucalipto
6;Aissam;Aissam;monsef28@hotmail.com;;Monsef;Urb La Legua C Alfonso Luarte N 33
7;Jose;Jose;josematasleon@hotmail.com;;Matas Leon;Avenida De Andalucia 54 1  2
8;Jose;Jose;josematasleon@hotmail.com;;Matas Leon;Calle Carreras N  45
10;Borja;Borja;warcborja@hotmail.com;;Ramos Nieto;C Menorca 6
11;Jose Manuel;Jose Manuel;recambios@jmercadal.net;;Riveiro Guerrero;Avda D Es Camp Verd 44
12;Aissam;Aissam;lalegua2005@hotmail.com;;Monsef;Urb La Legua C Alfonso Luarte N 33
13;Jesus;Jesus;jesusvegawt@gmail.com;;Vega Gonzalez;Sarasate 49 Bajo B
17;Cecilio;Cecilio;alexkrazys@hotmail.com;;Page Rico;Calle Arrabal Numero 23
18;Juan Manuel;Juan Manuel;juasmas3@hotmail.com;Sipa;De Hita Torrejon;Tajo 11
19;Manuel Jesus;Manuel Jesus;juradoolivas@hotmail.com;;Jurado Gutierrez;C  Virgen De Los Dolores N  45
20;Juan Pablo;Juan Pablo;jvilmar1@et.mde.es;;Villarta Martinez;C  Doctora Queralto  2
21;Borja;Borja;borjajz@hotmai.com;;Jerez Zubieta;C Virgen De Las Angustias N 2
22;David;David;d_corral_m@hotmail.com;;Corral Muñoz;Avenida De Las Perdices 13  4 C
23;Sergio;Sergio;gines_emt@hotmail.com;;Gines;C Golondrina  N 10
2749;Sergio;Sergio;gines_emt@hotmail.com;;Gines Cosin;C Jose Luis Albareda  N 23
24;Andres;Andres;andres_emt@hotmail.com;;Baceiredo Alloza;Avda Dos De Mayo N 5
25;Manuel;Manuel;manu19695@hotmail.com;Piensos Y Cereales Alhendin;Ramirez Garcia;Calle Real N 40
26;Gabriel Alexandre;Gabriel Alexandre;quepasanentio@hotmail.com;;Pico Garcia;Av  Las Palmeras N 27 7 E