Category ID;Active (0/1);Name *;Parent category;Root category (0/1);Description;Meta title;Meta keywords;Meta description;URL rewritten;Image URL
216;1;VENTA/ALQUILER MEDIDOR RADIACION;;0;;;;;;https://imperialracing.es/imperialracing/imageNULL
179;1;MALETAS/BOLSAS;;0;;;;;;https://imperialracing.es/imperialracing/imageFAST689.jpg
174;1;ROPA/MERCHANDISING;;0;;;;;;https://imperialracing.es/imperialracing/imagenov603p__64768.jpg
166;1;MOTORES ELECTRICOS/ACCESORIOS;;0;;;;;;https://imperialracing.es/imperialracing/imageaquitiendasno.jpg
84;1;REPUESTOS COCHES;;0;;;;;;https://imperialracing.es/imperialracing/imagehyper7tq28-1.jpg
107;1;PINTURAS;;0;;;;;;https://imperialracing.es/imperialracing/imagerunner_sprays.jpg
97;1;CAJAS DE ARRANQUE;;0;;;;;;https://imperialracing.es/imperialracing/imageH6515S.jpg
77;1;TORNILLERIA;;0;;;;;;https://imperialracing.es/imperialracing/imagetoran203000104.jpg
71;1;BATERIAS;;0;;;;;;https://imperialracing.es/imperialracing/imageansmann33.jpg
70;1;CARGADORES/ADAPTADORES;;0;;;;;;https://imperialracing.es/imperialracing/imageCARGADOR DIGITAL MULTI.jpg
65;1;FILTROS;;0;;;;;;https://imperialracing.es/imperialracing/imageb0101_000.jpg
60;1;SERVOS;;0;;;;;;https://imperialracing.es/imperialracing/imageSI0050.jpg
59;1;RODAMIENTOS;;0;;;;;;https://imperialracing.es/imperialracing/image28839.jpg
58;1;CABLES Y CONECTORES;;0;;;;;;https://imperialracing.es/imperialracing/imageansmann35.jpg
57;1;CARROCERIAS Y ALERONES;;0;;;;;;https://imperialracing.es/imperialracing/image071220NuevasCarrocerias.jpg
51;1;EMBRAGUES;;0;;;;;;https://imperialracing.es/imperialracing/imageOT-FR52.jpg
39;1;SILICONAS Y GRASAS;;0;;;;;;https://imperialracing.es/imperialracing/imageK6310-250S.jpg
35;1;ACCESORIOS;;0;;;;;;https://imperialracing.es/imperialracing/imageanimation_index05-400.gif
32;1;COMBUSTIBLES;;0;;;;;;https://imperialracing.es/imperialracing/imagextrem.jpg
31;1;EMISORAS;;0;;;;;;https://imperialracing.es/imperialracing/imagefhzfgh.jpg
27;1;RUEDAS;;0;;;;;;https://imperialracing.es/imperialracing/imageRUEDS ASMAN RO.jpg
24;1;HERRAMIENTAS;;0;;;;;;https://imperialracing.es/imperialracing/imagellaves allen.jpg
23;1;MOTORES EXPLOSION;;0;;;;;;https://imperialracing.es/imperialracing/imagenovaplus2155tcr.jpg
22;1;ESCAPES;;0;;;;;;https://imperialracing.es/imperialracing/image9901.bmp
21;1;COCHES;;0;;;;;;https://imperialracing.es/imperialracing/image8,5 pro mas motor.jpg
180;1;1/10 TOURING;;21;;;;;;https://imperialracing.es/imperialracing/image502088.jpg
148;1;1/8 TT ELECTRICO;;21;;;;;;https://imperialracing.es/imperialracing/imagetdr102038.jpg
134;1;1/8 TT TRUGGY;;21;;;;;;https://imperialracing.es/imperialracing/imagez.t+`+KKJKLDFGHRT,..jpg
133;1;1/10 TT ELECTRICO;;21;;;;;;https://imperialracing.es/imperialracing/imageLURTGH5F.png
132;1;1/8 TT GAS;;21;;;;;;https://imperialracing.es/imperialracing/imageimage005.jpg
88;1;ESCAPES;;22;;;;;;https://imperialracing.es/imperialracing/imagedynp5002.jpg
87;1;ACCESORIOS ESCAPE;;22;;;;;;https://imperialracing.es/imperialracing/imageofn95700.jpg
127;1;BUJIAS;;23;;;;;;https://imperialracing.es/imperialracing/imagebujia.jpg
126;1;ACCESORIOS;;23;;;;;;https://imperialracing.es/imperialracing/imagenov36000.jpg
125;1;MOTORES 1/8 RALLY GAME/GT;;23;;;;;;https://imperialracing.es/imperialracing/imageN21R7.jpg
124;1;MOTORES 1/10 TOURING;;23;;;;;;https://imperialracing.es/imperialracing/imagen12ll3-groot.jpg
86;1;MOTORES 1/8 TT;;23;;;;;;https://imperialracing.es/imperialracing/imageimages0G71GJUC.jpg
85;1;REPUESTOS;;23;;;;;;https://imperialracing.es/imperialracing/imagenov08559.jpg
202;1;SET HERRAMIENTAS;;24;;;;;;https://imperialracing.es/imperialracing/imagehud190005_1.jpg
201;1;LLAVES RC;;24;;;;;;https://imperialracing.es/imperialracing/imagehud107581.jpg
200;1;HERRAMIENTAS RC;;24;;;;;;https://imperialracing.es/imperialracing/imagehud190210.jpg
199;1;HERRAMIENTAS SETUP;;24;;;;;;https://imperialracing.es/imperialracing/imageHGJYHJTYGHJYTJJ.png
198;1;PUNTAS DESTORNILLADOR;;24;;;;;;https://imperialracing.es/imperialracing/imageimages61HARLA3.jpg
196;1;DESTORNILLADORES;;24;;;;;;https://imperialracing.es/imperialracing/imagehud190100.jpg
213;1;RUEDAS 1/5 TT BAJA;;27;;;;;;https://imperialracing.es/imperialracing/imagethR0BRS5RM.jpg
212;1;RUEDAS 1/5 PISTA;;27;;;;;;https://imperialracing.es/imperialracing/imagef8a458e18503c86603dc02339a944feb_M.jpg
181;1;RUEDAS 1/10 SHORT COURSE;;27;;;;;;https://imperialracing.es/imperialracing/imageth.jpg
175;1;RUEDAS 1/10;;27;;;;;;https://imperialracing.es/imperialracing/imagepro8211-02.jpg
131;1;MONTAJE Y PEGAMENTOS;;27;;;;;;https://imperialracing.es/imperialracing/imageZAS.gif
130;1;LLANTAS 1/8TT;;27;;;;;;https://imperialracing.es/imperialracing/imagejci3302y.jpg
129;1;ADHESIVOS LLANTAS;;27;;;;;;https://imperialracing.es/imperialracing/imageLLANFKJ
123;1;RUEDAS 1/8 RALLY GAME;;27;;;;;;https://imperialracing.es/imperialracing/imagerayy.jpg
122;1;RUEDAS 1/8 TRUGGY;;27;;;;;;https://imperialracing.es/imperialracing/imagetruggyh.jpg
121;1;RUEDAS 1/8 TT;;27;;;;;;https://imperialracing.es/imperialracing/imageaka14001vry.jpg
119;1;ADHESIVOS EMISORAS;;31;;;;;;https://imperialracing.es/imperialracing/image011.jpg
90;1;EMISORAS;;31;;;;;;https://imperialracing.es/imperialracing/imageFUTK2020_1.jpg
89;1;ACCESORIOS/ RECEPTORES;;31;;;;;;https://imperialracing.es/imperialracing/image24.jpg
215;1;SILICONA PLUS SPEED;;39;;;;;;https://imperialracing.es/imperialracing/imageIMG_20160310_1422051-3.jpg
214;1;OUTLET SILICONAS VARIAS MARCAS;;39;;;;;;https://imperialracing.es/imperialracing/imageautletsilicond.png
178;1;SILICONA ULTIMATE;;39;;;;;;https://imperialracing.es/imperialracing/imageuntiLOGO ULTRACIJDF.png
143;1;GRASAS ESPECIALES;;39;;;;;;https://imperialracing.es/imperialracing/imagemugb0330.jpg
103;1;SILICONA K FACTORY;;39;;;;;;https://imperialracing.es/imperialracing/imagelogokfactory.jpg
102;1;SILICONAS XRAY;;39;;;;;;https://imperialracing.es/imperialracing/imagexrayguapo.gif
101;1;SILICONAS HIRO SEIKO;;39;;;;;;https://imperialracing.es/imperialracing/imagelknio98.jpg
100;1;SILICONA MUGEN;;39;;;;;;https://imperialracing.es/imperialracing/imagelogo_mugen_142x64.gif
99;1;SILICONAS SIIM;;39;;;;;;https://imperialracing.es/imperialracing/imageSIIM(1).jpg
193;1;RODAMIENTOS DE CAMPANA;;51;;;;;;https://imperialracing.es/imperialracing/imagerevolution.jpg
138;1;RECAMBIO DE EMBRAGUE;;51;;;;;;https://imperialracing.es/imperialracing/imageHT495021SG.bmp
137;1;CAMPANAS;;51;;;;;;https://imperialracing.es/imperialracing/imageE2702M.jpg
136;1;EMBRAGUES;;51;;;;;;https://imperialracing.es/imperialracing/imageZCAlpha_E72-BU02101_thumb (1).jpg
210;1;ALERONES LEXAN BITTYDESING;;57;;;;;;https://imperialracing.es/imperialracing/imageshow_image_in_imgtag13423.jpg
208;1;CARROCERIAS 1/8TT PLUS SPEED;;57;;;;;;https://imperialracing.es/imperialracing/imagebdyfrc-xb8.jpg
144;1;CARROCERIAS 1/10 TURING;;57;;;;;;https://imperialracing.es/imperialracing/image84-817-large.jpg
139;1;CARROCERIAS 1/8 RALLY GAME;;57;;;;;;https://imperialracing.es/imperialracing/imageLHI
118;1;ADHESIVOS;;57;;;;;;https://imperialracing.es/imperialracing/imagemuge0043.jpg
106;1;CARROCERIAS 1/8 TT;;57;;;;;;https://imperialracing.es/imperialracing/imageIFRLR.jpg
104;1;ALERONES;;57;;;;;;https://imperialracing.es/imperialracing/imagelihlli.jpg
154;1;RODAMIENTOS MOTOR;;59;;;;;;https://imperialracing.es/imperialracing/imagenvr16000.jpg
153;1;SET COMPLETOS;;59;;;;;;https://imperialracing.es/imperialracing/image28839.jpg
152;1;TODAS LAS MEDIDAS;;59;;;;;;https://imperialracing.es/imperialracing/imageLOSA6953.jpg
209;1;ARANDELAS SERVO;;60;;;;;;https://imperialracing.es/imperialracing/imageArandela_servoGYHU.jpg
96;1;SERVOS;;60;;;;;;https://imperialracing.es/imperialracing/imagefutababls351.jpg
95;1;BRAZOS Y PIÑONERIAS;;60;;;;;;https://imperialracing.es/imperialracing/imagehrc55709.jpg
218;1;ADAPTADORES;;70;;;;;;https://imperialracing.es/imperialracing/imageadaptador-balanceo-jst-xh-720x600.jpg
217;1;CARGADORES;;70;;;;;;https://imperialracing.es/imperialracing/imageP1deswd.jpg
207;1;BATERIAS PLOMO;;71;;;;;;https://imperialracing.es/imperialracing/imageimages4VUYGRWS.jpg
206;1;BATERIAS NIQUEL METAL HIDRURO;;71;;;;;;https://imperialracing.es/imperialracing/imageBART566Y.jpg
205;1;BATERIAS LIPO;;71;;;;;;https://imperialracing.es/imperialracing/imageUltimate_14_8v_5_54de2d1e9dcde.jpg
204;1;BATERIAS LIFE;;71;;;;;;https://imperialracing.es/imperialracing/imageORI12255RR.jpg
165;1;KIT TORNILLERIA COCHES;;77;;;;;;https://imperialracing.es/imperialracing/imagemuge0831.jpg
164;1;TORNILLERIA EMISORAS COLORES;;77;;;;;;https://imperialracing.es/imperialracing/image1204765129_New-1.jpg
161;1;TORNILLERIA;;77;;;;;;https://imperialracing.es/imperialracing/image704006_piw.jpg
156;1;ARANDELAS Y TUERCAS COLORES;;77;;;;;;https://imperialracing.es/imperialracing/imageTWorksWashers-400x256.jpg
222;1;MUGEN MBX8/MBX8 ECO;;84;;;;;;https://imperialracing.es/imperialracing/imageMugen-Seiki-MBX8-coming-soon.jpg
211;1;SERPENT COBRA 811;;84;;;;;;https://imperialracing.es/imperialracing/imageimageIKXS,G.jpg
203;1;MUGEN MBX7R/MBX7R ECO;;84;;;;;;https://imperialracing.es/imperialracing/imagethFGHE5665.,.jpg
195;1;MUGEN MBX7/MBX7R/MBX8 TRUGGY;;84;;;;;;https://imperialracing.es/imperialracing/imageimagesCE7JLWFP.jpg
194;1;S-WORKZ SBK01/S350 EVO;;84;;;;;;https://imperialracing.es/imperialracing/imageuntitledRTYURT5.png
176;1;MUGEN MBX7/MBX7 ECO;;84;;;;;;https://imperialracing.es/imperialracing/imagemugen-mbx7.jpg
163;1;TEAM DURANGO DEX410V3/V4 ELECTRI;;84;;;;;;https://imperialracing.es/imperialracing/imageLURTGH5F.png
162;1;PROTECTORES CHASIS;;84;;;;;;https://imperialracing.es/imperialracing/imagemp9_front_big.jpg
147;1;TEAM DURANGO DNX408/DEX408;;84;;;;;;https://imperialracing.es/imperialracing/image776017210_sBBFH-S.jpg
146;1;AGAMA A8 EVO;;84;;;;;;https://imperialracing.es/imperialracing/imagelogo_agama_2.jpg
145;1;BERGONZONI R1;;84;;;;;;https://imperialracing.es/imperialracing/imageGHGJHGGMNM.gif
140;1;LOSI 8IGHT 2.0 y E.U;;84;;;;;;https://imperialracing.es/imperialracing/imageZZASDF.jpg
135;1;TEAM DURANGO DEX210/DEX210V2 ELE;;84;;;;;;https://imperialracing.es/imperialracing/image210press2-6.jpg
128;1;MUGEN MBX6 TRUGGY;;84;;;;;;https://imperialracing.es/imperialracing/imageMugenMBX6TMSpec1.jpg
94;1;HONG NOR;;84;;;;;;https://imperialracing.es/imperialracing/imagehn.gif
93;1;XRAY XB808 2010 NEW;;84;;;;;;https://imperialracing.es/imperialracing/imagexrayguapo.gif
92;1;MUGEN MBX6/EU/ECO;;84;;;;;;https://imperialracing.es/imperialracing/imagemugen_logo.jpg
91;1;REPUESTOS UNIVERSALES;;84;;;;;;https://imperialracing.es/imperialracing/imageKJH
64;1;OCM;;84;;;;;;https://imperialracing.es/imperialracing/imageocmracing.jpg
55;1;HIPER 8, 8.5;;84;;;;;;https://imperialracing.es/imperialracing/imagehhds.gif
54;1;HIPER 7;;84;;;;;;https://imperialracing.es/imperialracing/imagehyper7tq21.jpg
53;1;NANDA;;84;;;;;;https://imperialracing.es/imperialracing/imagenandaracing.jpg
28;1;MUGEN MBX5r;;84;;;;;;https://imperialracing.es/imperialracing/imagelogo_mugen_142x64.gif
219;1;MOTORES REDS;;85;;;;;;https://imperialracing.es/imperialracing/imageredr7e2_1.jpg
192;1;MOTORES VARIADOS;;85;;;;;;https://imperialracing.es/imperialracing/imagethCAJDI9S5.jpg
191;1;MOTORES ORION;;85;;;;;;https://imperialracing.es/imperialracing/imagethCAA24K9Y.jpg
190;1;MOTORES ULTIMATE;;85;;;;;;https://imperialracing.es/imperialracing/imagethCAKX887F.jpg
189;1;MOTORES OS;;85;;;;;;https://imperialracing.es/imperialracing/imagethCARMJE9R.jpg
188;1;MOTORES NINJA;;85;;;;;;https://imperialracing.es/imperialracing/imagethCA224EOY.jpg
187;1;MOTORES RB;;85;;;;;;https://imperialracing.es/imperialracing/imagethTYUJTY.jpg
186;1;MOTORES ALPHA;;85;;;;;;https://imperialracing.es/imperialracing/imagealp21-ryan-we.jpg
185;1;MOTORES NOVAROSSI;;85;;;;;;https://imperialracing.es/imperialracing/imagenvrs21p5xlt.jpg
184;1;RODAMIENTOS MOTOR;;85;;;;;;https://imperialracing.es/imperialracing/imagebocmx2513e.jpg
120;1;ADHESIVOS;;97;;;;;;https://imperialracing.es/imperialracing/imagecraftlrpbox.jpg
109;1;RUEDAS, MOTORES, CORREAS;;97;;;;;;https://imperialracing.es/imperialracing/image201000164.jpg
108;1;CAJAS DE ARRANQUE;;97;;;;;;https://imperialracing.es/imperialracing/imageH6515.jpg
221;1;RUEDAS 1/8TT PEGADAS;;121;;;;;;https://imperialracing.es/imperialracing/imageaka14010sry.jpg
220;1;RUEDAS 1/8TT SIN PEGAR;;121;;;;;;https://imperialracing.es/imperialracing/imagepro9021-00.jpg
142;1;BUJIAS TURBO;;127;;;;;;https://imperialracing.es/imperialracing/imageZGGTGT.jpg
141;1;BUJIAS NORMALES;;127;;;;;;https://imperialracing.es/imperialracing/imageZ`POIU.jpg
177;1;MOTORES ESCOBILLAS;;166;;;;;;https://imperialracing.es/imperialracing/image125000011-1.jpg
173;1;VARIADORES;;166;;;;;;https://imperialracing.es/imperialracing/imageimagesCA016JGU.jpg
172;1;REGULADORES/DISIPADORES/CABLES;;166;;;;;;https://imperialracing.es/imperialracing/imageimagesCAB62V2R.jpg
171;1;BATERIAS LIPO;;166;;;;;;https://imperialracing.es/imperialracing/imageimagesCAP4W2WO.jpg
170;1;PIÑONES 1/8;;166;;;;;;https://imperialracing.es/imperialracing/imageE0714.jpg
169;1;PIÑONES 1/10;;166;;;;;;https://imperialracing.es/imperialracing/image125000810.jpg
168;1;MOTORES BRUSHLESS;;166;;;;;;https://imperialracing.es/imperialracing/imageimagesCAKKPQG3.jpg
167;1;KIT CONVERSION ELECTRICO;;166;;;;;;https://imperialracing.es/imperialracing/imageLOSA0912.jpg