Id;Nombre;Imagen;"Fecha de creación"
10;Hobao;https://imperialracing.es/imperialracing/images/LOGOhobao.gif;"2008-02-25 18:13:44"
11;Ansmann;https://imperialracing.es/imperialracing/images/ansmann.jpg;"2008-02-29 18:24:20"
12;Speed;https://imperialracing.es/imperialracing/images/pluspeedx5s7890p.jpg;"2008-03-03 11:19:03"
13;Novarossi;https://imperialracing.es/imperialracing/images/imagesCAYWSIP7.jpg;"2008-03-03 11:29:29"
14;"Pro Line";https://imperialracing.es/imperialracing/images/logo_proline.jpg;"2008-03-11 10:19:45"
15;"Medial Pro";https://imperialracing.es/imperialracing/images/medialproLOGO.jpg;"2008-03-11 10:36:08"
16;"Nanda Racing";https://imperialracing.es/imperialracing/images/lnanda.jpg;"2008-03-11 12:52:02"
17;"Silcar Import";https://imperialracing.es/imperialracing/images/SIIM(1).jpg;"2008-03-11 14:17:48"
18;Odoneell;https://imperialracing.es/imperialracing/images/odonnell.jpg;"2008-03-11 14:26:46"
19;Os;https://imperialracing.es/imperialracing/images/OS.jpg;"2008-03-11 14:35:23"
20;"Mugen Seki";https://imperialracing.es/imperialracing/images/05uy689nng.jpg;"2008-03-13 12:14:55"
21;Ninja;https://imperialracing.es/imperialracing/images/36768769.jpg;"2008-03-13 12:18:00"
22;"Mad Racer";https://imperialracing.es/imperialracing/images/FGHADRG.jpg;"2008-03-14 01:38:01"
23;Fioroni;https://imperialracing.es/imperialracing/images/Fioroni.jpg;"2008-03-14 01:39:54"
24;"Ocm Racing";https://imperialracing.es/imperialracing/images/logoocm.jpg;"2008-03-14 02:15:27"
25;"Ko Propo";https://imperialracing.es/imperialracing/images/kopropo_f2.gif;"2008-03-14 02:15:56"
26;Futaba;https://imperialracing.es/imperialracing/images/top-bar-logo-over.gif;"2008-03-20 23:14:30"
27;Gq;https://imperialracing.es/imperialracing/images/gq.jpg;"2008-04-07 23:16:24"
28;Grp;https://imperialracing.es/imperialracing/images/zxcvbbvcxz.jpg;"2008-04-17 10:13:43"
29;"Hiro Seiko";https://imperialracing.es/imperialracing/images/IMAG025.jpg;"2008-04-17 11:16:43"
30;Sanwa;https://imperialracing.es/imperialracing/images/logoswcolor.jpg;"2008-05-06 22:36:12"
31;Spektrum;https://imperialracing.es/imperialracing/images/Spektrum_logo2-302x156.jpg;"2008-05-07 12:03:18"
32;Amb;https://imperialracing.es/imperialracing/images/amblogo.gif;"2008-07-01 23:24:08"
33;Fallwat;https://imperialracing.es/imperialracing/images/logo_fullwat.gif;"2008-09-10 23:59:23"
34;Orion;https://imperialracing.es/imperialracing/images/iuhj;"2008-11-12 22:48:26"
35;6mik;https://imperialracing.es/imperialracing/images/logo6MIK.jpg;"2008-11-18 17:00:08"
36;Ats;https://imperialracing.es/imperialracing/images/ats.gif;"2008-11-27 00:15:43"
37;"Team Magic";https://imperialracing.es/imperialracing/images/logoteammagic.gif;"2008-11-27 00:16:15"
38;Sld;https://imperialracing.es/imperialracing/images/sld.jpg;"2008-11-27 00:20:20"
39;"Team Titan";https://imperialracing.es/imperialracing/images/main_01.jpg;"2008-12-02 00:07:09"
40;"Team Losi";https://imperialracing.es/imperialracing/images/ZZASDF.jpg;"2008-12-08 00:48:50"
42;"Hong Nor";https://imperialracing.es/imperialracing/images/Hong_Nor_logo.jpg;"2008-12-08 13:25:18"
43;"Power Save Racing";https://imperialracing.es/imperialracing/images/ihnuh;"2008-12-08 13:39:05"
44;K-factory;https://imperialracing.es/imperialracing/images/KFactory_logo.jpg;"2008-12-25 18:39:36"
45;Hard;https://imperialracing.es/imperialracing/images/8352234165218.jpg;"2009-01-13 23:48:16"
46;Xray;https://imperialracing.es/imperialracing/images/xray.jpg;"2009-01-14 18:25:51"
47;Savox;https://imperialracing.es/imperialracing/images/SRYHQA;"2009-01-17 00:29:18"
48;Axe;https://imperialracing.es/imperialracing/images/images.jpg;"2009-01-23 12:29:44"
49;Picco;https://imperialracing.es/imperialracing/images/Picco_logo.jpg;"2009-01-23 12:30:01"
50;"Craft- Rc";https://imperialracing.es/imperialracing/images/top_01.gif;"2009-03-16 18:08:36"
51;"Panther Products";https://imperialracing.es/imperialracing/images/header.gif;"2009-05-16 17:08:32"
52;"Yeah Racing";https://imperialracing.es/imperialracing/images/yr_header_2008.jpg;"2009-06-04 17:03:00"
54;Jconcepts;https://imperialracing.es/imperialracing/images/cthxk.jpg;"2009-06-06 14:09:14"
55;"Ultimate Racing";https://imperialracing.es/imperialracing/images/imagesM9ZQL7NS.jpg;"2009-06-20 19:11:58"
56;Reckuard-tuning;https://imperialracing.es/imperialracing/images/33.jpg;"2009-06-29 19:39:13"
57;Aka;https://imperialracing.es/imperialracing/images/CA6PCDYV.jpg;"2009-06-30 13:38:03"
58;Lrp;https://imperialracing.es/imperialracing/images/CACPA74T.jpg;"2009-06-30 17:00:50"
59;Cys;https://imperialracing.es/imperialracing/images/logo-A583c.jpg;"2009-07-13 13:20:54"
60;Sanwa;https://imperialracing.es/imperialracing/images/logo_sanwa.gif;"2009-07-16 18:43:04"
61;Fastrax;https://imperialracing.es/imperialracing/images/BJIGUKOLOLLKJH.jpg;"2009-08-24 18:07:58"
62;Rcw;https://imperialracing.es/imperialracing/images/DSCF0560.jpg;"2009-09-12 19:45:09"
63;"Team Durango";https://imperialracing.es/imperialracing/images/776017210_sBBFH-S.jpg;"2009-09-24 14:21:48"
64;"Meca Fuel";https://imperialracing.es/imperialracing/images/DFJBDWK.jpg;"2009-09-27 13:22:21"
65;Jets;https://imperialracing.es/imperialracing/images/JETS.jpg;"2009-10-26 22:34:27"
66;Alpha;https://imperialracing.es/imperialracing/images/imagesCAYJVH7Kg78.jpg;"2009-11-26 17:40:36"
67;Bbf;https://imperialracing.es/imperialracing/images/Z``P`P+.jpg;"2009-12-21 23:37:50"
68;Mielke;https://imperialracing.es/imperialracing/images/logo_mielke.gif;"2009-12-26 13:52:55"
69;"Agama Racing";https://imperialracing.es/imperialracing/images/WELORUHWEH.jpg;"2010-03-24 21:38:10"
70;"Sp Racing";https://imperialracing.es/imperialracing/images/LogoSP.jpg;"2010-04-21 00:03:17"
71;Vp-pro;https://imperialracing.es/imperialracing/images/3409857340kl;"2010-05-28 17:56:36"
73;Hudy;https://imperialracing.es/imperialracing/images/hudy_logo_2.jpg;"2010-07-13 11:30:44"
74;Jvd;https://imperialracing.es/imperialracing/images/5678y678;"2010-07-29 16:55:07"
75;Argus;https://imperialracing.es/imperialracing/images/LOGOMOTOargus.jpg;"2011-03-03 17:18:08"
76;Nitrolux;https://imperialracing.es/imperialracing/images/imagesCA2A69B0.jpg;"2011-03-15 14:15:06"
77;"Vox Engine";https://imperialracing.es/imperialracing/images/LOGOVOXBUGGY.gif;"2011-03-29 17:41:32"
78;Procircuit;https://imperialracing.es/imperialracing/images/pro-circuit-2-y-4-tiempos.jpg;"2011-05-25 13:20:15"
79;Traxxas;https://imperialracing.es/imperialracing/images/GJFXGHJ.jpg;"2011-07-18 14:32:19"
80;Rb;https://imperialracing.es/imperialracing/images/imagesXVTS0P8H.jpg;"2011-09-09 18:27:05"
81;Bittydesign;https://imperialracing.es/imperialracing/images/untitledyuk8.bmp;"2011-10-13 11:50:04"
82;"De Racing";https://imperialracing.es/imperialracing/images/xxcvbbf.jpg;"2011-11-21 15:52:27"
83;Nosram;https://imperialracing.es/imperialracing/images/KJHGUYFG.bmp;"2012-03-15 23:32:43"
84;"Thunder Innovation";"https://imperialracing.es/imperialracing/images/logo innovati.gif";"2012-05-31 00:52:41"
85;"Speed Passion";https://imperialracing.es/imperialracing/images/logo_speedpassion.gif;"2012-07-19 08:02:37"
86;Enrichpower;https://imperialracing.es/imperialracing/images/BUK6R.jpg;"2012-09-02 17:59:45"
87;Xceed;https://imperialracing.es/imperialracing/images/bil8098hn.jpg;"2012-10-29 21:49:19"
88;Absima;https://imperialracing.es/imperialracing/images/images.jpg;"2012-12-13 17:19:33"
89;"Team C";https://imperialracing.es/imperialracing/images/FNE9IRQ8T.jpg;"2013-01-06 20:29:09"
90;Arrowind;https://imperialracing.es/imperialracing/images/098UYYH.jpg;"2013-05-14 16:09:03"
91;Dboots;https://imperialracing.es/imperialracing/images/thklhiop.jpg;"2014-03-12 16:34:38"
92;S-workz;https://imperialracing.es/imperialracing/images/untitledTRTYHRT.png;"2014-09-09 11:12:24"
93;"Reds Racing";https://imperialracing.es/imperialracing/images/untitledLYFU675POP.png;"2014-09-29 17:56:53"
94;Ztw;https://imperialracing.es/imperialracing/images/thumbnail_ZTW.jpg;"2014-11-22 13:44:49"
95;Sirio;https://imperialracing.es/imperialracing/images/ALKD8E.jpg;"2015-08-12 14:22:02"
96;Serpent;https://imperialracing.es/imperialracing/images/serPENTTTTTG.png;"2015-11-25 13:37:07"
97;Pmt;https://imperialracing.es/imperialracing/images/logo-pmt.png;"2015-12-14 19:57:01"
98;Tekin;https://imperialracing.es/imperialracing/images/tekin_logoF.jpg;"2016-03-23 16:36:34"
99;Hobbywing;https://imperialracing.es/imperialracing/images/hobbywing_logo.png;"2016-03-31 13:48:44"
100;"Dark Matter";https://imperialracing.es/imperialracing/images/thumbnail_dark_matter1.jpg;"2016-06-14 18:46:41"
101;Srt;https://imperialracing.es/imperialracing/images/descargasrt.jpg;"2019-03-14 13:08:45"
